127.0.0.1 - - [13/Nov/2019:17:09:47 +0530] "GET / HTTP/1.1" 200 11488
127.0.0.1 - - [13/Nov/2019:17:09:47 +0530] "GET /tomcat.css HTTP/1.1" 200 5931
127.0.0.1 - - [13/Nov/2019:17:09:47 +0530] "GET /tomcat.png HTTP/1.1" 200 5103
127.0.0.1 - - [13/Nov/2019:17:09:47 +0530] "GET /asf-logo-wide.svg HTTP/1.1" 200 27530
127.0.0.1 - - [13/Nov/2019:17:09:47 +0530] "GET /bg-nav.png HTTP/1.1" 200 1401
127.0.0.1 - - [13/Nov/2019:17:09:47 +0530] "GET /bg-upper.png HTTP/1.1" 200 3103
127.0.0.1 - - [13/Nov/2019:17:09:47 +0530] "GET /bg-button.png HTTP/1.1" 200 713
127.0.0.1 - - [13/Nov/2019:17:09:47 +0530] "GET /bg-middle.png HTTP/1.1" 200 1918
127.0.0.1 - - [13/Nov/2019:17:09:47 +0530] "GET /favicon.ico HTTP/1.1" 200 8192
127.0.0.1 - - [13/Nov/2019:17:09:52 +0530] "GET /HelloWeb HTTP/1.1" 200 70
127.0.0.1 - - [13/Nov/2019:17:17:19 +0530] "GET /HelloWeb HTTP/1.1" 200 79
127.0.0.1 - - [13/Nov/2019:17:19:16 +0530] "GET /HelloWeb HTTP/1.1" 200 79
